{
  "page": 1,
  "results": [
    {
      "poster_path": "/e1mjopzAS2KNsvpbpahQ1a6SkSn.jpg",
      "id": 297761,
      "title": "Suicide Squad",
      "vote_average": 5.91
    }
  ],
  "total_results": 19629,
  "total_pages": 982
}
